VHDL/Lab 2 vhdl/simulation/qsim/lab3vhdl.msim.vcd
$comment
	File created using the following command:
		vcd file lab3vhdl.msim.vcd -direction
$end
$date
	Fri Aug 12 18:03:28 2016
$end
$version
	ModelSim Version 10.1d
$end
$timescale
	1ps
$end
$scope module lab3vhdl_vlg_vec_tst $end
$var reg 1 ! clk $end
$var reg 1 " rx $end
$var wire 1 # decimal_point $end
$var wire 1 $ segment7 [6] $end
$var wire 1 % segment7 [5] $end
$var wire 1 & segment7 [4] $end
$var wire 1 ' segment7 [3] $end
$var wire 1 ( segment7 [2] $end
$var wire 1 ) segment7 [1] $end
$var wire 1 * segment7 [0] $end
$var wire 1 + single_digit [3] $end
$var wire 1 , single_digit [2] $end
$var wire 1 - single_digit [1] $end
$var wire 1 . single_digit [0] $end
$var wire 1 / sampler $end
$scope module i1 $end
$var wire 1 0 gnd $end
$var wire 1 1 vcc $end
$var wire 1 2 unknown $end
$var wire 1 3 clk~dataout $end
$var wire 1 4 rx~dataout $end
$var wire 1 5 inst5|s_count_temp_rtl_0|dffs[1]~29_pexpout $end
$var wire 1 6 inst|CS.state_bit_0~dataout $end
$var wire 1 7 inst|CS.state_bit_1~dataout $end
$var wire 1 8 inst10|decimal_point~dataout $end
$var wire 1 9 inst6|b_count_temp_rtl_0|dffs [3] $end
$var wire 1 : inst6|b_count_temp_rtl_0|dffs [2] $end
$var wire 1 ; inst6|b_count_temp_rtl_0|dffs [1] $end
$var wire 1 < inst6|b_count_temp_rtl_0|dffs [0] $end
$var wire 1 = inst5|s_count_temp_rtl_0|dffs [3] $end
$var wire 1 > inst5|s_count_temp_rtl_0|dffs [2] $end
$var wire 1 ? inst5|s_count_temp_rtl_0|dffs [1] $end
$var wire 1 @ inst5|s_count_temp_rtl_0|dffs [0] $end
$var wire 1 A inst10|single_digit [3] $end
$var wire 1 B inst10|single_digit [2] $end
$var wire 1 C inst10|single_digit [1] $end
$var wire 1 D inst10|single_digit [0] $end
$var wire 1 E inst8|Q [7] $end
$var wire 1 F inst8|Q [6] $end
$var wire 1 G inst8|Q [5] $end
$var wire 1 H inst8|Q [4] $end
$var wire 1 I inst8|Q [3] $end
$var wire 1 J inst8|Q [2] $end
$var wire 1 K inst8|Q [1] $end
$var wire 1 L inst8|Q [0] $end
$var wire 1 M inst7|output_8bit_temp [7] $end
$var wire 1 N inst7|output_8bit_temp [6] $end
$var wire 1 O inst7|output_8bit_temp [5] $end
$var wire 1 P inst7|output_8bit_temp [4] $end
$var wire 1 Q inst7|output_8bit_temp [3] $end
$var wire 1 R inst7|output_8bit_temp [2] $end
$var wire 1 S inst7|output_8bit_temp [1] $end
$var wire 1 T inst7|output_8bit_temp [0] $end
$var wire 1 U inst11|segment7 [6] $end
$var wire 1 V inst11|segment7 [5] $end
$var wire 1 W inst11|segment7 [4] $end
$var wire 1 X inst11|segment7 [3] $end
$var wire 1 Y inst11|segment7 [2] $end
$var wire 1 Z inst11|segment7 [1] $end
$var wire 1 [ inst11|segment7 [0] $end
$var wire 1 \ inst11|digit [3] $end
$var wire 1 ] inst11|digit [2] $end
$var wire 1 ^ inst11|digit [1] $end
$var wire 1 _ inst11|digit [0] $end
$upscope $end
$upscope $end
$enddefinitions $end
#0
$dumpvars
0!
1"
0#
0*
0)
0(
0'
0&
0%
0$
0.
0-
0,
0+
x/
00
11
x2
03
14
05
06
07
08
0<
0;
0:
09
0@
0?
0>
0=
0D
0C
0B
0A
0L
0K
0J
0I
0H
0G
0F
zE
0T
0S
0R
0Q
0P
0O
0N
0M
0[
0Z
0Y
0X
0W
0V
0U
0_
0^
0]
0\
$end
#160
1!
13
0/
1X
1[
1Z
1Y
1V
1W
1D
1'
1*
1)
1(
1%
1&
1.
#320
0!
03
1/
#480
1!
13
0/
#640
0!
03
1/
#800
1!
13
0/
#960
0!
03
1/
#1120
1!
13
0/
#1280
0!
03
1/
#1440
1!
13
0/
#1600
0!
03
1/
#1760
1!
13
0/
#1920
0!
03
1/
#2080
1!
13
0/
#2240
0!
03
1/
#2400
1!
13
0/
#2560
0!
03
1/
#2720
1!
13
0/
#2880
0!
03
1/
#3040
1!
13
0/
#3200
0!
03
1/
#3360
1!
13
0/
#3520
0!
03
1/
#3680
1!
13
0/
#3840
0!
03
1/
#4000
1!
13
0/
#4160
0!
03
1/
#4320
1!
13
0/
#4480
0!
03
1/
#4640
1!
13
0/
#4800
0!
03
1/
#4960
1!
13
0/
#5120
0"
0!
04
03
1/
#5280
1!
13
0/
16
#5440
0!
03
1/
#5600
1!
13
0/
1@
#5760
0!
03
1/
#5920
1!
13
0/
0@
1?
#6080
0!
03
1/
#6240
1!
13
0/
1@
#6400
0!
03
1/
#6560
1!
13
0/
1>
0@
0?
#6720
0!
03
1/
#6880
1!
13
0/
1@
#7040
0!
03
1/
#7200
1!
13
0/
0@
1?
#7360
0!
03
1/
#7520
1!
13
0/
1@
#7680
0!
03
1/
#7840
1!
13
0/
0>
17
06
0@
0?
#8000
0!
03
1/
#8160
1!
13
0/
1@
#8320
0!
03
1/
#8480
1!
13
0/
0@
1?
#8640
0!
03
1/
#8800
1!
13
0/
1@
#8960
0!
03
1/
#9120
1!
13
0/
1>
0@
0?
#9280
0!
03
1/
#9440
1!
13
0/
1@
#9600
0!
03
1/
#9760
1!
13
0/
0@
1?
#9920
0!
03
1/
#10080
1!
13
0/
1@
#10240
1"
0!
14
03
1/
#10400
1!
13
0/
1=
0>
0@
0?
#10560
0!
03
1/
#10720
1!
13
0/
1@
#10880
0!
03
1/
#11040
1!
13
0/
0@
1?
#11200
0!
03
1/
#11360
1!
13
0/
1@
#11520
0!
03
1/
#11680
1!
13
0/
1>
0@
0?
#11840
0!
03
1/
#12000
1!
13
0/
1@
#12160
0!
03
1/
#12320
1!
13
0/
0@
1?
#12480
0!
03
1/
#12640
1!
13
0/
1@
#12800
0!
03
1/
#12960
1!
13
0/
1M
0=
0>
1<
0@
0?
#13120
0!
03
1/
#13280
1!
13
0/
1@
#13440
0!
03
1/
#13600
1!
13
0/
0@
1?
#13760
0!
03
1/
#13920
1!
13
0/
1@
#14080
0!
03
1/
#14240
1!
13
0/
1>
0@
0?
#14400
0!
03
1/
#14560
1!
13
0/
1@
#14720
0!
03
1/
#14880
1!
13
0/
0@
1?
#15040
0!
03
1/
#15200
1!
13
0/
1@
#15360
0"
0!
04
03
1/
#15520
1!
13
0/
1=
0>
0@
0?
#15680
0!
03
1/
#15840
1!
13
0/
1@
#16000
0!
03
1/
#16160
1!
13
0/
0@
1?
#16320
0!
03
1/
#16480
1!
13
0/
1@
#16640
0!
03
1/
#16800
1!
13
0/
1>
0@
0?
#16960
0!
03
1/
#17120
1!
13
0/
1@
#17280
0!
03
1/
#17440
1!
13
0/
0@
1?
#17600
0!
03
1/
#17760
1!
13
0/
1@
#17920
0!
03
1/
#18080
1!
13
0/
1N
0M
0=
0>
1;
0<
0@
0?
#18240
0!
03
1/
#18400
1!
13
0/
1@
#18560
0!
03
1/
#18720
1!
13
0/
0@
1?
#18880
0!
03
1/
#19040
1!
13
0/
1@
#19200
0!
03
1/
#19360
1!
13
0/
1>
0@
0?
#19520
0!
03
1/
#19680
1!
13
0/
1@
#19840
0!
03
1/
#20000
1!
13
0/
0@
1?
#20160
0!
03
1/
#20320
1!
13
0/
1@
#20480
1"
0!
14
03
1/
#20640
1!
13
0/
1=
0>
0@
0?
#20800
0!
03
1/
#20960
1!
13
0/
1@
#21120
0!
03
1/
#21280
1!
13
0/
0@
1?
#21440
0!
03
1/
#21600
1!
13
0/
1@
#21760
0!
03
1/
#21920
1!
13
0/
1>
0@
0?
#22080
0!
03
1/
#22240
1!
13
0/
1@
#22400
0!
03
1/
#22560
1!
13
0/
0@
1?
#22720
0!
03
1/
#22880
1!
13
0/
1@
#23040
0!
03
1/
#23200
1!
13
0/
1O
0N
1M
0=
0>
1<
0@
0?
#23360
0!
03
1/
#23520
1!
13
0/
1@
#23680
0!
03
1/
#23840
1!
13
0/
0@
1?
#24000
0!
03
1/
#24160
1!
13
0/
1@
#24320
0!
03
1/
#24480
1!
13
0/
1>
0@
0?
#24640
0!
03
1/
#24800
1!
13
0/
1@
#24960
0!
03
1/
#25120
1!
13
0/
0@
1?
#25280
0!
03
1/
#25440
1!
13
0/
1@
#25600
0"
0!
04
03
1/
#25760
1!
13
0/
1=
0>
0@
0?
#25920
0!
03
1/
#26080
1!
13
0/
1@
#26240
0!
03
1/
#26400
1!
13
0/
0@
1?
#26560
0!
03
1/
#26720
1!
13
0/
1@
#26880
0!
03
1/
#27040
1!
13
0/
1>
0@
0?
#27200
0!
03
1/
#27360
1!
13
0/
1@
#27520
0!
03
1/
#27680
1!
13
0/
0@
1?
#27840
0!
03
1/
#28000
1!
13
0/
1@
#28160
0!
03
1/
#28320
1!
13
0/
1P
0O
1N
0M
0=
0>
1:
0;
0<
0@
0?
#28480
0!
03
1/
#28640
1!
13
0/
1@
#28800
0!
03
1/
#28960
1!
13
0/
0@
1?
#29120
0!
03
1/
#29280
1!
13
0/
1@
#29440
0!
03
1/
#29600
1!
13
0/
1>
0@
0?
#29760
0!
03
1/
#29920
1!
13
0/
1@
#30080
0!
03
1/
#30240
1!
13
0/
0@
1?
#30400
0!
03
1/
#30560
1!
13
0/
1@
#30720
1"
0!
14
03
1/
#30880
1!
13
0/
1=
0>
0@
0?
#31040
0!
03
1/
#31200
1!
13
0/
1@
#31360
0!
03
1/
#31520
1!
13
0/
0@
1?
#31680
0!
03
1/
#31840
1!
13
0/
1@
#32000
0!
03
1/
#32160
1!
13
0/
1>
0@
0?
#32320
0!
03
1/
#32480
1!
13
0/
1@
#32640
0!
03
1/
#32800
1!
13
0/
0@
1?
#32960
0!
03
1/
#33120
1!
13
0/
1@
#33280
0!
03
1/
#33440
1!
13
0/
1Q
0P
1O
0N
1M
0=
0>
1<
0@
0?
#33600
0!
03
1/
#33760
1!
13
0/
1@
#33920
0!
03
1/
#34080
1!
13
0/
0@
1?
#34240
0!
03
1/
#34400
1!
13
0/
1@
#34560
0!
03
1/
#34720
1!
13
0/
1>
0@
0?
#34880
0!
03
1/
#35040
1!
13
0/
1@
#35200
0!
03
1/
#35360
1!
13
0/
0@
1?
#35520
0!
03
1/
#35680
1!
13
0/
1@
#35840
0"
0!
04
03
1/
#36000
1!
13
0/
1=
0>
0@
0?
#36160
0!
03
1/
#36320
1!
13
0/
1@
#36480
0!
03
1/
#36640
1!
13
0/
0@
1?
#36800
0!
03
1/
#36960
1!
13
0/
1@
#37120
0!
03
1/
#37280
1!
13
0/
1>
0@
0?
#37440
0!
03
1/
#37600
1!
13
0/
1@
#37760
0!
03
1/
#37920
1!
13
0/
0@
1?
#38080
0!
03
1/
#38240
1!
13
0/
1@
#38400
0!
03
1/
#38560
1!
13
0/
1R
0Q
1P
0O
1N
0M
0=
0>
1;
0<
0@
0?
#38720
0!
03
1/
#38880
1!
13
0/
1@
#39040
0!
03
1/
#39200
1!
13
0/
0@
1?
#39360
0!
03
1/
#39520
1!
13
0/
1@
#39680
0!
03
1/
#39840
1!
13
0/
1>
0@
0?
#40000
0!
03
1/
#40160
1!
13
0/
1@
#40320
0!
03
1/
#40480
1!
13
0/
0@
1?
#40640
0!
03
1/
#40800
1!
13
0/
1@
#40960
1"
0!
14
03
1/
#41120
1!
13
0/
1=
0>
0@
0?
#41280
0!
03
1/
#41440
1!
13
0/
1@
#41600
0!
03
1/
#41760
1!
13
0/
0@
1?
#41920
0!
03
1/
#42080
1!
13
0/
1@
#42240
0!
03
1/
#42400
1!
13
0/
1>
0@
0?
#42560
0!
03
1/
#42720
1!
13
0/
1@
#42880
0!
03
1/
#43040
1!
13
0/
0@
1?
#43200
0!
03
1/
#43360
1!
13
0/
1@
#43520
0!
03
1/
#43680
1!
13
0/
1S
0R
1Q
0P
1O
0N
1M
0=
0>
1<
0@
0?
#43840
0!
03
1/
#44000
1!
13
0/
1@
#44160
0!
03
1/
#44320
1!
13
0/
0@
1?
#44480
0!
03
1/
#44640
1!
13
0/
1@
#44800
0!
03
1/
#44960
1!
13
0/
1>
0@
0?
#45120
0!
03
1/
#45280
1!
13
0/
1@
#45440
0!
03
1/
#45600
1!
13
0/
0@
1?
#45760
0!
03
1/
#45920
1!
13
0/
1@
#46080
0"
0!
04
03
1/
#46240
1!
13
0/
1=
0>
0@
0?
#46400
0!
03
1/
#46560
1!
13
0/
1@
#46720
0!
03
1/
#46880
1!
13
0/
0@
1?
#47040
0!
03
1/
#47200
1!
13
0/
1@
#47360
0!
03
1/
#47520
1!
13
0/
1>
0@
0?
#47680
0!
03
1/
#47840
1!
13
0/
1@
#48000
0!
03
1/
#48160
1!
13
0/
0@
1?
#48320
0!
03
1/
#48480
1!
13
0/
1@
#48640
0!
03
1/
#48800
1!
13
0/
1T
0S
1R
0Q
1P
0O
1N
0M
0=
0>
16
0@
0?
#48960
0!
03
1/
#49120
1!
13
0/
1L
1J
1F
1H
1@
#49280
0!
03
1/
#49440
1!
13
0/
1_
1]
0D
1B
18
0@
1?
0.
1,
1#
#49600
0!
03
1/
#49760
1!
13
0/
0Z
1U
0W
1@
0)
1$
0&
#49920
0!
03
1/
#50080
1!
13
0/
1>
0@
0?
#50240
0!
03
1/
#50400
1!
13
0/
1@
#50560
0!
03
1/
#50720
1!
13
0/
0@
1?
#50880
0!
03
1/
#51040
1!
13
0/
1@
#51200
1"
0!
14
03
1/
#51360
1!
13
0/
1=
0>
0@
0?
#51520
0!
03
1/
#51680
1!
13
0/
1@
#51840
0!
03
1/
#52000
1!
13
0/
0@
1?
#52160
0!
03
1/
#52320
1!
13
0/
1@
#52480
0!
03
1/
#52640
1!
13
0/
1>
0@
0?
#52800
0!
03
1/
#52960
1!
13
0/
1@
15
#53120
0!
03
1/
#53280
1!
13
0/
0@
1?
05
#53440
0!
03
1/
#53600
1!
13
0/
1@
15
#53760
0!
03
1/
#53920
1!
13
0/
07
06
05
#54080
0!
03
1/
#54240
1!
13
0/
#54400
0!
03
1/
#54560
1!
13
0/
#54720
0!
03
1/
#54880
1!
13
0/
#55040
0!
03
1/
#55200
1!
13
0/
#55360
0!
03
1/
#55520
1!
13
0/
#55680
0!
03
1/
#55840
1!
13
0/
#56000
0!
03
1/
#56160
1!
13
0/
#56320
0!
03
1/
#56480
1!
13
0/
#56640
0!
03
1/
#56800
1!
13
0/
#56960
0!
03
1/
#57120
1!
13
0/
#57280
0!
03
1/
#57440
1!
13
0/
#57600
0!
03
1/
#57760
1!
13
0/
#57920
0!
03
1/
#58080
1!
13
0/
#58240
0!
03
1/
#58400
1!
13
0/
#58560
0!
03
1/
#58720
1!
13
0/
#58880
0!
03
1/
#59040
1!
13
0/
#59200
0!
03
1/
#59360
1!
13
0/
#59520
0!
03
1/
#59680
1!
13
0/
#59840
0!
03
1/
#60000
1!
13
0/
#60160
0!
03
1/
#60320
1!
13
0/
#60480
0!
03
1/
#60640
1!
13
0/
#60800
0!
03
1/
#60960
1!
13
0/
#61120
0!
03
1/
#61280
1!
13
0/
#61440
0!
03
1/
#61600
1!
13
0/
#61760
0!
03
1/
#61920
1!
13
0/
#62080
0!
03
1/
#62240
1!
13
0/
#62400
0!
03
1/
#62560
1!
13
0/
#62720
0!
03
1/
#62880
1!
13
0/
#63040
0!
03
1/
#63200
1!
13
0/
#63360
0!
03
1/
#63520
1!
13
0/
#63680
0!
03
1/
#63840
1!
13
0/
#64000
0!
03
1/
#64160
1!
13
0/
#64320
0!
03
1/
#64480
1!
13
0/
#64640
0!
03
1/
#64800
1!
13
0/
#64960
0!
03
1/
#65120
1!
13
0/
#65280
0!
03
1/
#65440
1!
13
0/
#65600
0!
03
1/
#65760
1!
13
0/
#65920
0!
03
1/
#66080
1!
13
0/
#66240
0!
03
1/
#66400
1!
13
0/
#66560
0!
03
1/
#66720
1!
13
0/
#66880
0!
03
1/
#67040
1!
13
0/
#67200
0!
03
1/
#67360
1!
13
0/
#67520
0!
03
1/
#67680
1!
13
0/
#67840
0!
03
1/
#68000
1!
13
0/
#68160
0!
03
1/
#68320
1!
13
0/
#68480
0!
03
1/
#68640
1!
13
0/
#68800
0!
03
1/
#68960
1!
13
0/
#69120
0!
03
1/
#69280
1!
13
0/
#69440
0!
03
1/
#69600
1!
13
0/
#69760
0!
03
1/
#69920
1!
13
0/
#70080
0!
03
1/
#70240
1!
13
0/
#70400
0!
03
1/
#70560
1!
13
0/
#70720
0!
03
1/
#70880
1!
13
0/
#71040
0!
03
1/
#71200
1!
13
0/
#71360
0!
03
1/
#71520
1!
13
0/
#71680
0!
03
1/
#71840
1!
13
0/
#72000
0!
03
1/
#72160
1!
13
0/
#72320
0!
03
1/
#72480
1!
13
0/
#72640
0!
03
1/
#72800
1!
13
0/
#72960
0!
03
1/
#73120
1!
13
0/
#73280
0!
03
1/
#73440
1!
13
0/
#73600
0!
03
1/
#73760
1!
13
0/
#73920
0!
03
1/
#74080
1!
13
0/
#74240
0!
03
1/
#74400
1!
13
0/
#74560
0!
03
1/
#74720
1!
13
0/
#74880
0!
03
1/
#75040
1!
13
0/
#75200
0!
03
1/
#75360
1!
13
0/
#75520
0!
03
1/
#75680
1!
13
0/
#75840
0!
03
1/
#76000
1!
13
0/
#76160
0!
03
1/
#76320
1!
13
0/
#76480
0!
03
1/
#76640
1!
13
0/
#76800
0!
03
1/
#76960
1!
13
0/
#77120
0!
03
1/
#77280
1!
13
0/
#77440
0!
03
1/
#77600
1!
13
0/
#77760
0!
03
1/
#77920
1!
13
0/
#78080
0!
03
1/
#78240
1!
13
0/
#78400
0!
03
1/
#78560
1!
13
0/
#78720
0!
03
1/
#78880
1!
13
0/
#79040
0!
03
1/
#79200
1!
13
0/
#79360
0!
03
1/
#79520
1!
13
0/
#79680
0!
03
1/
#79840
1!
13
0/
#80000
0!
03
1/
#80160
1!
13
0/
#80320
0!
03
1/
#80480
1!
13
0/
#80640
0!
03
1/
#80800
1!
13
0/
#80960
0!
03
1/
#81120
1!
13
0/
#81280
0!
03
1/
#81440
1!
13
0/
#81600
0!
03
1/
#81760
1!
13
0/
#81920
0!
03
1/
#82080
1!
13
0/
#82240
0!
03
1/
#82400
1!
13
0/
#82560
0!
03
1/
#82720
1!
13
0/
#82880
0!
03
1/
#83040
1!
13
0/
#83200
0!
03
1/
#83360
1!
13
0/
#83520
0!
03
1/
#83680
1!
13
0/
#83840
0!
03
1/
#84000
1!
13
0/
#84160
0!
03
1/
#84320
1!
13
0/
#84480
0!
03
1/
#84640
1!
13
0/
#84800
0!
03
1/
#84960
1!
13
0/
#85120
0!
03
1/
#85280
1!
13
0/
#85440
0!
03
1/
#85600
1!
13
0/
#85760
0!
03
1/
#85920
1!
13
0/
#86080
0!
03
1/
#86240
1!
13
0/
#86400
0!
03
1/
#86560
1!
13
0/
#86720
0!
03
1/
#86880
1!
13
0/
#87040
0!
03
1/
#87200
1!
13
0/
#87360
0!
03
1/
#87520
1!
13
0/
#87680
0!
03
1/
#87840
1!
13
0/
#88000
0!
03
1/
#88160
1!
13
0/
#88320
0!
03
1/
#88480
1!
13
0/
#88640
0!
03
1/
#88800
1!
13
0/
#88960
0!
03
1/
#89120
1!
13
0/
#89280
0!
03
1/
#89440
1!
13
0/
#89600
0!
03
1/
#89760
1!
13
0/
#89920
0!
03
1/
#90080
1!
13
0/
#90240
0!
03
1/
#90400
1!
13
0/
#90560
0!
03
1/
#90720
1!
13
0/
#90880
0!
03
1/
#91040
1!
13
0/
#91200
0!
03
1/
#91360
1!
13
0/
#91520
0!
03
1/
#91680
1!
13
0/
#91840
0!
03
1/
#92000
1!
13
0/
#92160
0!
03
1/
#92320
1!
13
0/
#92480
0!
03
1/
#92640
1!
13
0/
#92800
0!
03
1/
#92960
1!
13
0/
#93120
0!
03
1/
#93280
1!
13
0/
#93440
0!
03
1/
#93600
1!
13
0/
#93760
0!
03
1/
#93920
1!
13
0/
#94080
0!
03
1/
#94240
1!
13
0/
#94400
0!
03
1/
#94560
1!
13
0/
#94720
0!
03
1/
#94880
1!
13
0/
#95040
0!
03
1/
#95200
1!
13
0/
#95360
0!
03
1/
#95520
1!
13
0/
#95680
0!
03
1/
#95840
1!
13
0/
#96000
0!
03
1/
#96160
1!
13
0/
#96320
0!
03
1/
#96480
1!
13
0/
#96640
0!
03
1/
#96800
1!
13
0/
#96960
0!
03
1/
#97120
1!
13
0/
#97280
0!
03
1/
#97440
1!
13
0/
#97600
0!
03
1/
#97760
1!
13
0/
#97920
0!
03
1/
#98080
1!
13
0/
#98240
0!
03
1/
#98400
1!
13
0/
#98560
0!
03
1/
#98720
1!
13
0/
#98880
0!
03
1/
#99040
1!
13
0/
#99200
0!
03
1/
#99360
1!
13
0/
#99520
0!
03
1/
#99680
1!
13
0/
#99840
0!
03
1/
